{
  "images" : [
    {
      "idiom" : "universal",
      "filename" : "fCJae_croper_ru.jpeg",
      "scale" : "1x"
    },
    {
      "idiom" : "universal",
      "filename" : "fCJae_croper_ru-1.jpeg",
      "scale" : "2x"
    },
    {
      "idiom" : "universal",
      "filename" : "fCJae_croper_ru-2.jpeg",
      "scale" : "3x"
    }
  ],
  "info" : {
    "version" : 1,
    "author" : "xcode"
  }
}